<svg width="499" height="499" viewBox="0 0 499 499" fill="none" xmlns="http://www.w3.org/2000/svg">
	<g clip-path="url(#clip0_1_192)">
		<path d="M249.78 498.01C386.907 498.01 498.07 386.847 498.07 249.72C498.07 112.593 386.907 1.43018 249.78 1.43018C112.653 1.43018 1.48999 112.593 1.48999 249.72C1.48999 386.847 112.653 498.01 249.78 498.01Z" fill="url(#paint0_linear_1_192)"/>
		<path d="M325.2 325.17C316.34 334.03 301.99 334.03 293.13 325.17L172.87 204.91C164.01 196.05 164.01 181.7 172.87 172.84C181.73 163.98 196.08 163.98 204.94 172.84L325.2 293.1C334.06 301.96 334.06 316.32 325.2 325.17Z" fill="white"/>
		<path d="M172.87 325.17C164.01 316.31 164.01 301.96 172.87 293.1L293.13 172.84C301.99 163.98 316.34 163.98 325.2 172.84C334.06 181.7 334.06 196.05 325.2 204.91L204.94 325.17C196.08 334.03 181.72 334.03 172.87 325.17Z" fill="white"/>
	</g>
	<defs>
		<linearGradient id="paint0_linear_1_192" x1="249.778" y1="498.012" x2="249.778" y2="1.4374" gradientUnits="userSpaceOnUse">
			<stop stop-color="#58595B"/>
			<stop offset="1" stop-color="#A7A9AC"/>
		</linearGradient>
		<clipPath id="clip0_1_192">
			<rect width="498.07" height="498.01" fill="white"/>
		</clipPath>
	</defs>
</svg>
